regression-test | David's (bionicturtle) data blog
…
bottle

## # A tibble: 56 x 74
##    Cst_Cnt Btl_Cnt Sta_ID Depth_ID Depthm T_degC Salnty O2ml_L STheta O2Sat
##      <dbl>   <dbl> <chr>  <chr>     <dbl>  <dbl>  <dbl>  <dbl>  <dbl> <dbl>
##  1       1       1 054.0~ 19-4903~      0  10.5    33.4  NA      25.6  NA  
##  2       1       2 054.0~ 19-4903~      8  10.5    33.4  NA      25.7  NA  
##  3   14855  395792 066.7~ 19-6607~    200   8.64   33.9   3.63   26.3  55.3
##  4   14855  395793 066.7~ 19-6607~    218   8.37   34.0   3.44   26.4  52.1
##  5   14855  395794 066.7~ 19-6607~    248   8.02   34.0   2.81   26.5  42.2
##  6   14855  395795 066.7~ 19-6607~    250   8      34.0   2.78   26.5  41.8
##  7   14855  395796 066.7~ 19-6607~    296   7.48   34.1   2.24   26.6  33.3
##  8   14855  395797 066.7~ 19-6607~    300   7.43   34.1   2.22   26.6  32.9
##  9   14855  395798 066.7~ 19-6607~    348   6.83   34.1   2.05   26.8  30  
## 10   14855  395799 066.7~ 19-6607~    400   6.06   34.1   1.74   26.8  25  
## # ... with 46 more rows, and 64 more variables: `Oxy_µmol/Kg` <dbl>,
## #   BtlNum <lgl>, RecInd <dbl>, T_prec <dbl>, T_qual <lgl>, S_prec <dbl>,
## #   S_qual <dbl>, P_qual <dbl>, O_qual <dbl>, SThtaq <dbl>, O2Satq <dbl>,
## #   ChlorA <lgl>, Chlqua <dbl>, Phaeop <lgl>, Phaqua <dbl>, PO4uM <lgl>,
## #   PO4q <dbl>, SiO3uM <lgl>, SiO3qu <dbl>, NO2uM <lgl>, NO2q <dbl>,
## #   NO3uM <lgl>, NO3q <dbl>, NH3uM <lgl>, NH3q <dbl>, C14As1 <lgl>,
## #   C14A1p <lgl>, C14A1q <dbl>, C14As2 <lgl>, C14A2p <lgl>, C14A2q <dbl>,
## #   DarkAs <lgl>, DarkAp <lgl>, DarkAq <dbl>, MeanAs <lgl>, MeanAp <lgl>,
## #   MeanAq <dbl>, IncTim <lgl>, LightP <lgl>, R_Depth <dbl>, R_TEMP <dbl>,
…
